{
  "name": "Company",
  "plural": "companies",
  "base": "PersistedModel",
  "idInjection": true,
  "options": {
    "validateUpsert": true
  },
  "properties": {
    "name": {
      "type": "string",
      "required": true
    },
    "description": {
      "type": "string"
    },
    "logo": {
      "type": "string"
    }
  },
  "validations": [],
  "relations": {
    "insureds": {
      "type": "hasMany",
      "model": "Insured",
      "foreignKey": "companyId",
      "through": "CompanyInsured"
    }
  },
  "acls": [],
  "methods": {}
}
