{
  "db": {
    "host": "localhost",
    "port": 3306,
    "database": "aocrewards",
    "password": "root",
    "user": "root",
    "connector": "mysql"
  },
  "storage": {
    "name": "storage",
    "connector": "loopback-component-storage",
    "provider": "filesystem",
    "root": "./storage",
    "nameConflict": "makeUnique"
  }
}
